\relax 
\select@language{english}
\@writefile{toc}{\select@language{english}}
\@writefile{lof}{\select@language{english}}
\@writefile{lot}{\select@language{english}}
\@writefile{toc}{\contentsline {section}{\numberline {1}Neister tree}{1}}
\@writefile{toc}{\contentsline {subsection}{\numberline {1.1}Algorithm}{1}}
\@writefile{toc}{\contentsline {subsection}{\numberline {1.2}Pseudo-Code}{1}}
\@writefile{lol}{\contentsline {lstlisting}{\numberline {1}Pseudo Code}{1}}
\@writefile{toc}{\contentsline {subsection}{\numberline {1.3}Proof of Correctness}{1}}
\@writefile{toc}{\contentsline {subsubsection}{\numberline {1.3.1}Finding Upper Bound on non $X$ nodes}{1}}
\@writefile{toc}{\contentsline {subsubsection}{\numberline {1.3.2}Finding Minimum Weight Neister Tree}{2}}
\@writefile{toc}{\contentsline {subsubsection}{\numberline {1.3.3}In a tree with internal nodes having degree atleast 3, the number of internal nodes is always less than the number of leaf nodes}{2}}
\@writefile{toc}{\contentsline {subsection}{\numberline {1.4}Time Complexity}{2}}
\@writefile{toc}{\contentsline {subsection}{\numberline {1.5}Space Complexity}{2}}
\@writefile{toc}{\contentsline {section}{\numberline {2}Unique-path graph}{3}}
\@writefile{toc}{\contentsline {subsection}{\numberline {2.1}Algorithm}{3}}
\@writefile{toc}{\contentsline {subsubsection}{\numberline {2.1.1}Finding a vertex which has a path to every other vertex}{3}}
\@writefile{toc}{\contentsline {subsubsection}{\numberline {2.1.2}Determining if the graph is a Unique-Path graph by invoking DFS on the above vertex}{4}}
\@writefile{toc}{\contentsline {subsubsection}{\numberline {2.1.3}Reason for starting DFS from the vertex \emph  {v}}{4}}
\@writefile{toc}{\contentsline {subsection}{\numberline {2.2}PseudoCode}{4}}
\@writefile{lol}{\contentsline {lstlisting}{\numberline {2}Pseudo Code}{4}}
\@writefile{toc}{\contentsline {subsection}{\numberline {2.3}Time Complexity}{5}}
\@writefile{toc}{\contentsline {section}{\numberline {3}A real life application of Directed Acyclic Graphs}{6}}
\@writefile{toc}{\contentsline {subsection}{\numberline {3.1}Algorithm}{6}}
\@writefile{toc}{\contentsline {subsection}{\numberline {3.2}PseudoCode}{6}}
\@writefile{lol}{\contentsline {lstlisting}{\numberline {3}Pseudo Code}{6}}
\@writefile{toc}{\contentsline {subsection}{\numberline {3.3}Proof of Correctness}{6}}
\@writefile{toc}{\contentsline {subsection}{\numberline {3.4}Time Complexity}{7}}
\@writefile{toc}{\contentsline {subsection}{\numberline {3.5}Space Complexity}{7}}
