5 5
6 5
7 8
8 10
9 10
10 10
11 15
12 17
13 24
14 28
15 31
16 36
17 39
18 40
19 53
20 61
22 68
24 86
26 97
28 110
30 116
33 134
36 167
39 169
42 199
46 284
50 309
55 371
60 412
66 493
72 576
79 669
86 756
94 946
103 1070
113 1286
124 1647
136 1989
149 2409
163 2959
179 3535
196 4270
215 5192
236 6265
259 7644
284 9781
312 11536
343 14093
377 16987
414 20395
455 24705
500 29060
550 34248
605 41505
665 49455
731 58465
804 70969
884 84716
972 101236
1069 121981
1175 148341
1292 180989
1421 221641
1563 270756
1719 327551
1890 397865
2079 482201
2286 581612
2514 707209
2765 860588
3041 1043010
3345 1262306
3679 1513807
4046 1840547
4450 2223743
4895 2681335
5384 3238989
5922 3920986
6514 4783284
7165 5720693
7881 6845627
8669 8296104
9535 10022089
10488 12426291
11536 15058663
12689 18182110
13957 21920654
15352 26053176
16887 31733829
18575 38482663
20432 46610431
22475 56119299
24722 67351581
27194 81237837
29913 99358671
32904 119991207
36194 145370830
39813 174873241
43794 212780160
48173 259162902
52990 314345901
58289 378416795
64117 454963764
70528 555207610
77580 667641187
85338 812967773
93871 977187876
