5 1.317870
6 0.735020
7 0.605552
8 0.554167
9 0.483713
10 0.433483
12 0.392845
14 0.354577
16 0.334375
19 0.294881
22 0.286421
26 0.259387
31 0.247428
37 0.237095
44 0.228545
52 0.238848
62 0.235941
74 0.214146
88 0.240663
105 0.212058
126 0.190983
151 0.178408
181 0.173632
217 0.175805
260 0.170437
312 0.176128
374 0.176097
448 0.171326
537 0.179489
644 0.171606
772 0.174508
926 0.168986
1111 0.167828
1333 0.173583
1599 0.170242
1918 0.169913
2301 0.166155
2761 0.167951
3313 0.167792
3975 0.166426
4770 0.169355
5724 0.166762
6868 0.168078
8241 0.168080
9889 0.170314
11866 0.172891
14239 0.171163
17086 0.176251
20503 0.179460
24603 0.184898
29523 0.185554
35427 0.192242
42512 0.202338
51014 0.210504
61216 0.227475
73459 0.236860
88150 0.250532
