\relax 
\select@language{english}
\@writefile{toc}{\select@language{english}}
\@writefile{lof}{\select@language{english}}
\@writefile{lot}{\select@language{english}}
\@writefile{toc}{\contentsline {section}{\numberline {1}Approach}{1}}
\@writefile{toc}{\contentsline {section}{\numberline {2}Plots}{1}}
\@writefile{toc}{\contentsline {section}{\numberline {3}Inferences}{2}}
\@writefile{toc}{\contentsline {section}{\numberline {4}System Details}{2}}
