\relax 
\@writefile{toc}{\contentsline {section}{\numberline {1}}{2}}
\@writefile{lol}{\contentsline {lstlisting}{\numberline {1}Pseudo Code}{2}}
\@writefile{toc}{\contentsline {section}{\numberline {2}}{2}}
\@writefile{toc}{\contentsline {section}{\numberline {3}}{3}}
\@writefile{lol}{\contentsline {lstlisting}{\numberline {2}Pseudo Code}{4}}
